…
2. Notice that we have some neutral superheros! Who are they? List their names below.  

```r
superheroclean_info %>%
  filter(alignment == "neutral")
```

```
## # A tibble: 24 × 10
##    name  gender eye_color race  hair_color height publisher skin_color alignment
##    <chr> <chr>  <chr>     <chr> <chr>       <dbl> <chr>     <chr>      <chr>    
##  1 Biza… Male   black     Biza… Black         191 DC Comics white      neutral  
##  2 Blac… Male   <NA>      God … <NA>           NA DC Comics <NA>       neutral  
##  3 Capt… Male   brown     Human Brown          NA DC Comics <NA>       neutral  
##  4 Copy… Female red       Muta… White         183 Marvel C… blue       neutral  
##  5 Dead… Male   brown     Muta… No Hair       188 Marvel C… <NA>       neutral  
##  6 Deat… Male   blue      Human White         193 DC Comics <NA>       neutral  
##  7 Etri… Male   red       Demon No Hair       193 DC Comics yellow     neutral  
##  8 Gala… Male   black     Cosm… Black         876 Marvel C… <NA>       neutral  
##  9 Glad… Male   blue      Stro… Blue          198 Marvel C… purple     neutral  
## 10 Indi… Female <NA>      Alien Purple         NA DC Comics <NA>       neutral  
## # ℹ 14 more rows
## # ℹ 1 more variable: weight <dbl>
```

## `superhero_info`
3. Let's say we are only interested in the variables name, alignment, and "race". How would you isolate these variables from `superhero_info`?

```r
superheroclean_info%>%
  select(alignment, name, race)
```

```
## # A tibble: 734 × 3
##    alignment name          race             
##    <chr>     <chr>         <chr>            
##  1 good      A-Bomb        Human            
##  2 good      Abe Sapien    Icthyo Sapien    
##  3 good      Abin Sur      Ungaran          
##  4 bad       Abomination   Human / Radiation
##  5 bad       Abraxas       Cosmic Entity    
##  6 bad       Absorbing Man Human            
##  7 good      Adam Monroe   <NA>             
##  8 good      Adam Strange  Human            
##  9 good      Agent 13      <NA>             
## 10 good      Agent Bob     Human            
## # ℹ 724 more rows
```

## Not Human
4. List all of the superheros that are not human.

```r
superheroclean_info %>%
  filter(race !="Human")
```

```
## # A tibble: 222 × 10
##    name  gender eye_color race  hair_color height publisher skin_color alignment
##    <chr> <chr>  <chr>     <chr> <chr>       <dbl> <chr>     <chr>      <chr>    
##  1 Abe … Male   blue      Icth… No Hair       191 Dark Hor… blue       good     
##  2 Abin… Male   blue      Unga… No Hair       185 DC Comics red        good     
##  3 Abom… Male   green     Huma… No Hair       203 Marvel C… <NA>       bad      
##  4 Abra… Male   blue      Cosm… Black          NA Marvel C… <NA>       bad      
##  5 Ajax  Male   brown     Cybo… Black         193 Marvel C… <NA>       bad      
##  6 Alien Male   <NA>      Xeno… No Hair       244 Dark Hor… black      bad      
##  7 Amazo Male   red       Andr… <NA>          257 DC Comics <NA>       bad      
##  8 Angel Male   <NA>      Vamp… <NA>           NA Dark Hor… <NA>       good     
##  9 Ange… Female yellow    Muta… Black         165 Marvel C… <NA>       good     
## 10 Anti… Male   yellow    God … No Hair        61 DC Comics <NA>       bad      
## # ℹ 212 more rows
## # ℹ 1 more variable: weight <dbl>
```
…
8. Among the bad guys, who are the male humans over 200 inches in height?

```r
badguys %>%
  select(gender, height, name) %>%
  filter(gender == "Male") %>%
  filter(height >= 200)
```

```
## # A tibble: 22 × 3
##    gender height name          
##    <chr>   <dbl> <chr>         
##  1 Male      203 Abomination   
##  2 Male      244 Alien         
##  3 Male      257 Amazo         
##  4 Male      213 Apocalypse    
##  5 Male      203 Bane          
##  6 Male      267 Darkseid      
##  7 Male      201 Doctor Doom   
##  8 Male      201 Doctor Doom II
##  9 Male      244 Doomsday      
## 10 Male      244 Killer Croc   
## # ℹ 12 more rows
```
…
10. Let's explore who the really small superheros are. In the `superhero_info` data, which have a weight less than 50? Be sure to sort your results by weight lowest to highest.  

```r
superheroclean_info %>%
  select(weight, name) %>%
  filter(weight <= 50) %>%
  arrange(weight)
```

```
## # A tibble: 31 × 2
##    weight name           
##     <dbl> <chr>          
##  1      2 Iron Monger    
##  2      4 Groot          
##  3     14 Jack-Jack      
##  4     16 Galactus       
##  5     17 Yoda           
##  6     18 Fin Fang Foom  
##  7     18 Howard the Duck
##  8     18 Krypto         
##  9     25 Rocket Raccoon 
## 10     27 Dash           
## # ℹ 21 more rows
```
…
```r
height_weight_ratio <- superheroclean_info$height / superheroclean_info$weight
```

12. Who has the highest height to weight ratio?  
#Groot

```r
superheroclean_info$height_weight_ratio <- height_weight_ratio
superheroclean_info
```

```
## # A tibble: 734 × 11
##    name  gender eye_color race  hair_color height publisher skin_color alignment
##    <chr> <chr>  <chr>     <chr> <chr>       <dbl> <chr>     <chr>      <chr>    
##  1 A-Bo… Male   yellow    Human No Hair       203 Marvel C… <NA>       good     
##  2 Abe … Male   blue      Icth… No Hair       191 Dark Hor… blue       good     
##  3 Abin… Male   blue      Unga… No Hair       185 DC Comics red        good     
##  4 Abom… Male   green     Huma… No Hair       203 Marvel C… <NA>       bad      
##  5 Abra… Male   blue      Cosm… Black          NA Marvel C… <NA>       bad      
##  6 Abso… Male   blue      Human No Hair       193 Marvel C… <NA>       bad      
##  7 Adam… Male   blue      <NA>  Blond          NA NBC - He… <NA>       good     
##  8 Adam… Male   blue      Human Blond         185 DC Comics <NA>       good     
##  9 Agen… Female blue      <NA>  Blond         173 Marvel C… <NA>       good     
## 10 Agen… Male   brown     Human Brown         178 Marvel C… <NA>       good     
## # ℹ 724 more rows
## # ℹ 2 more variables: weight <dbl>, height_weight_ratio <dbl>
```
…
