…
fisheries_tidy$catch <- as.numeric(fisheries_tidy$catch)
```

3. How many countries are represented in the data? Provide a count and list their names.

```r
#there are 203 countries
fisheries_tidy %>%
  count(country)
```

```
## # A tibble: 203 × 2
##    country                 n
##    <fct>               <int>
##  1 Albania               934
##  2 Algeria              1561
##  3 American Samoa        556
##  4 Angola               2119
##  5 Anguilla              129
##  6 Antigua and Barbuda   356
##  7 Argentina            3403
##  8 Aruba                 172
##  9 Australia            8183
## 10 Bahamas               423
## # ℹ 193 more rows
```

4. Refocus the data only to include country, isscaap_taxonomic_group, asfis_species_name, asfis_species_number, year, catch.

```r
fisheries_tidy %>%
  select(country, isscaap_taxonomic_group, asfis_species_name, asfis_species_number, year, catch)
```

```
## # A tibble: 376,771 × 6
##    country isscaap_taxonomic_group asfis_species_name asfis_species_number  year
##    <fct>   <chr>                   <chr>              <fct>                <dbl>
##  1 Albania Sharks, rays, chimaeras Squatinidae        10903XXXXX            1995
##  2 Albania Sharks, rays, chimaeras Squatinidae        10903XXXXX            1996
##  3 Albania Sharks, rays, chimaeras Squatinidae        10903XXXXX            1997
##  4 Albania Sharks, rays, chimaeras Squatinidae        10903XXXXX            1998
##  5 Albania Sharks, rays, chimaeras Squatinidae        10903XXXXX            1999
##  6 Albania Sharks, rays, chimaeras Squatinidae        10903XXXXX            2000
##  7 Albania Sharks, rays, chimaeras Squatinidae        10903XXXXX            2001
##  8 Albania Sharks, rays, chimaeras Squatinidae        10903XXXXX            2002
##  9 Albania Sharks, rays, chimaeras Squatinidae        10903XXXXX            2003
## 10 Albania Sharks, rays, chimaeras Squatinidae        10903XXXXX            2004
## # ℹ 376,761 more rows
## # ℹ 1 more variable: catch <dbl>
```

5. Based on the asfis_species_number, how many distinct fish species were caught as part of these data?

```r
#There were 1551 distinct species of fish caught
fisheries_tidy %>%
  count(asfis_species_number)
```

```
## # A tibble: 1,551 × 2
##    asfis_species_number     n
##    <fct>                <int>
##  1 10903XXXXX             138
##  2 1750100101            1923
##  3 17710001XX            2675
##  4 2280203101             130
##  5 1480403301             915
##  6 1702021301            1450
##  7 1703926101            1105
##  8 2280100117             305
##  9 10801003XX             103
## 10 3210200202             699
## # ℹ 1,541 more rows
```
…
```r
print(large_catch)
```

```
## # A tibble: 193 × 2
##    country                  catch
##    <fct>                    <dbl>
##  1 China                    25899
##  2 Russian Federation       12181
##  3 United States of America 11762
##  4 Japan                     8510
##  5 Indonesia                 8341
##  6 Peru                      7443
##  7 Chile                     6906
##  8 India                     6351
##  9 Thailand                  6243
## 10 Korea, Republic of        6124
## # ℹ 183 more rows
```

7. Which country caught the most sardines (_Sardina pilchardus_) between the years 1990-2000?

```r
#Morocco caught the most sardines between 1990-2000
fisheries_tidy %>%
  filter(year >= 1990 & year <= 2000) %>%
  filter(asfis_species_name == "Sardina pilchardus") %>% 
  group_by(country) %>%
  summarise(big_sardine=sum(catch, na.rm=T)) %>%
  arrange(desc(big_sardine))
```

```
## # A tibble: 37 × 2
##    country               big_sardine
##    <fct>                       <dbl>
##  1 Morocco                      7470
##  2 Spain                        3507
##  3 Russian Federation           1639
##  4 Ukraine                      1030
##  5 France                        966
##  6 Portugal                      818
##  7 Greece                        528
##  8 Italy                         507
##  9 Serbia and Montenegro         478
## 10 Denmark                       477
## # ℹ 27 more rows
```
…
9. Which species had the highest catch total between 2008-2012? (hint: Osteichthyes is not a species)

```r
#The Alaska Pollok was the highest catch from 2008-2012.
fisheries_tidy %>%
  filter(year >= 2008 & year <= 2012) %>%
  group_by(asfis_species_name) %>%
  summarise(high_catch=sum(catch, na.rm=T)) %>%
  arrange(desc(high_catch))
```

```
## # A tibble: 1,472 × 2
##    asfis_species_name    high_catch
##    <chr>                      <dbl>
##  1 Osteichthyes              107808
##  2 Theragra chalcogramma      41075
##  3 Engraulis ringens          35523
##  4 Katsuwonus pelamis         32153
##  5 Trichiurus lepturus        30400
##  6 Clupea harengus            28527
##  7 Thunnus albacares          20119
##  8 Scomber japonicus          14723
##  9 Gadus morhua               13253
## 10 Thunnus alalunga           12019
## # ℹ 1,462 more rows
```

10. Use the data to do at least one analysis of your choice.

```r
fisheries_tidy %>%
  filter(country == "India") %>%
  filter(year >= 2000 & year <= 2010) %>%
  group_by(common_name) %>%
  summarise(high_species=sum(catch, na.r=T)) %>%
  arrange(desc(high_species))
```

```
## # A tibble: 53 × 2
##    common_name                   high_species
##    <chr>                                <dbl>
##  1 Marine fishes nei                    12388
##  2 Indian oil sardine                    8014
##  3 Croakers, drums nei                   6258
##  4 Bombayduck                            5795
##  5 Giant tiger prawn                     5015
##  6 Natantian decapods nei                4888
##  7 Hairtails, scabbardfishes nei         3264
##  8 Ponyfishes(=Slipmouths) nei           1199
##  9 Cephalopods nei                       1153
## 10 Percoids nei                          1147
## # ℹ 43 more rows
```
…
